[
	{ "textureID" : 0, "filename" : "Buttons.png"          }, // UIButtons
	{ "textureID" : 1, "filename" : "ControllerIcons.png"  , "smooth" : true }, // ControllerButtonIcons
	
	{ "textureID" : 2, "filename" : "Entities.png"         }, // Entities
	{ "textureID" : 3, "filename" : "Weapons.png"          }, // Weapons
	{ "textureID" : 4, "filename" : "Environment.png"      , "repeated" :  true }, // Environment
	{ "textureID" : 5, "filename" : "Explosion.png"        }, // Explosion
	
	{ "textureID" : 33, "filename" : "Environment.png"     , "rect" : [ 0  , 0 , 100, 100 ], "repeated" : true }, // GroundDesert

	{ "textureID" : 65, "filename" : "Particles.png"       , "rect" : [ 0 , 0, 19, 19 ] }, // Particle1
	{ "textureID" : 66, "filename" : "Particles.png"       , "rect" : [ 19, 0, 19, 19 ] }, // Particle2
	
	
	{ "textureID" : 128, "filename" : "TitleScreen.png" }  // TitleScreen
]